/home/woody/projects/jjjping/src/main/java/com/woody/Ping.java
/home/woody/projects/jjjping/src/main/java/com/woody/JjjpingApplication.java
/home/woody/projects/jjjping/src/main/java/com/woody/PingController.java
